<?xml version="1.0" encoding="utf-8"?>
<!-- Generator: Adobe Illustrator 16.0.0, SVG Export Plug-In . SVG Version: 6.00 Build 0)  -->
<!DOCTYPE svg PUBLIC "-//W3C//DTD SVG 1.1//EN" "http://www.w3.org/Graphics/SVG/1.1/DTD/svg11.dtd">
<svg version="1.1" id="Layer_1" xmlns="http://www.w3.org/2000/svg" xmlns:xlink="http://www.w3.org/1999/xlink" x="0px" y="0px"
	 width="400px" height="400px" viewBox="0 0 400 400" enable-background="new 0 0 400 400" xml:space="preserve">
<path d="M400,200c0,110.457-89.543,200-200,200l0,0C89.543,400,0,310.457,0,200l0,0C0,89.543,89.543,0,200,0l0,0
	C310.457,0,400,89.543,400,200L400,200z"/>
<path fill="#FFFFFF" d="M290.994,133.994c-6.001-6-15.5-6-21.502,0l-95.499,98l-42.501-44c-6-6-15.5-6-21.5,0
	c-6,6.002-6,16.001,0,22l53.499,55.001c6,6,15.501,6,21.501,0l106.501-109C296.994,149.996,296.994,139.994,290.994,133.994z"/>
</svg>
